<svg width="70" height="70" viewBox="0 0 70 70" fill="none" xmlns="http://www.w3.org/2000/svg">
<path d="M24.9475 22.2859V35.3355H31.9477C33.9914 35.3355 34.3044 35.9949 34.3411 36.6389L34.3638 37.0374H34.4748H35.3312H35.442L35.4646 36.6389C35.483 36.3169 35.5395 35.3355 38.0496 35.3355H45.0926V22.2859L38.5837 22.2889C38.1196 22.2889 36.5508 22.3211 35.8487 22.7339C35.4407 22.9722 35.1327 23.3126 34.9044 23.722C34.6747 23.3074 34.3594 22.9699 33.957 22.7339C33.2979 22.3468 32.0796 22.2889 31.4118 22.2889L24.9475 22.2859ZM36.2769 23.4638C36.6065 23.27 37.5557 23.1348 38.5838 23.1348L44.2473 23.1324V34.4897H38.0509C36.6821 34.4897 35.8397 34.7753 35.3319 35.1811L35.3295 25.5241C35.3295 25.4901 35.3252 25.4601 35.3244 25.4272C35.3399 24.755 35.5231 23.9044 36.2769 23.4638ZM33.5311 23.4638C34.2956 23.9134 34.4725 24.7862 34.4822 25.4633C34.4822 25.4848 34.4765 25.5023 34.4765 25.5243L34.4748 35.1227C33.6877 34.4906 32.4637 34.4897 31.9477 34.4897H25.793V23.1324L31.4139 23.1348C32.3738 23.1348 33.1851 23.2615 33.5311 23.4638ZM45.9335 23.6137H46.7771V37.3548H37.1095C36.7164 38.0371 36.0376 38.3925 35.0078 38.3925C33.9778 38.3925 33.2989 38.0376 32.9084 37.3548H23.2566V36.4358L22.4671 36.7765C22.4047 37.1375 22.0912 37.4125 21.7145 37.4125C21.2901 37.4125 20.9456 37.0671 20.9456 36.6413C20.9456 36.2189 21.2901 35.8742 21.7145 35.8742C21.8711 35.8742 22.0152 35.9204 22.1353 36.0009L23.2568 35.5185V34.5119L22.4887 34.747C22.3943 35.0655 22.1047 35.2991 21.7558 35.2991C21.332 35.2991 20.9871 34.9557 20.9871 34.5317C20.9871 34.1066 21.3318 33.7637 21.7558 33.7637C21.94 33.7637 22.1086 33.8316 22.2415 33.941L23.2552 33.6309V32.5925L22.4718 32.7261C22.3529 32.9987 22.0825 33.1875 21.7672 33.1875C21.3448 33.1875 20.9974 32.8452 20.9974 32.4194C20.9974 31.9955 21.3448 31.6514 21.7672 31.6514C21.9879 31.6514 22.1856 31.7467 22.3262 31.8963L23.2546 31.736V30.6765L22.4346 30.7062C22.3009 30.9273 22.0582 31.0758 21.7816 31.0758C21.3589 31.0758 21.012 30.7321 21.012 30.3086C21.012 29.8846 21.3589 29.5396 21.7816 29.5396C22.0392 29.5396 22.2672 29.6679 22.407 29.8632L23.2552 29.8327V28.6839L22.3886 28.6464C22.2497 28.838 22.0238 28.9646 21.7679 28.9646C21.3455 28.9646 20.9983 28.6196 20.9983 28.1966C20.9983 27.773 21.3455 27.4285 21.7679 27.4285C22.0472 27.4285 22.2911 27.5797 22.4254 27.8028L23.2552 27.8403V26.7828L22.3095 26.6132C22.1694 26.7597 21.9712 26.8531 21.7542 26.8531C21.3304 26.8531 20.9854 26.5088 20.9854 26.0857C20.9854 25.661 21.3304 25.3169 21.7542 25.3169C22.0712 25.3169 22.343 25.5088 22.459 25.7834L23.2552 25.9261V24.8887L22.1985 24.5633C22.0655 24.6735 21.8975 24.7406 21.7128 24.7406C21.2884 24.7406 20.9434 24.3968 20.9434 23.9733C20.9434 23.5495 21.2884 23.2045 21.7128 23.2045C22.0616 23.2045 22.3529 23.439 22.4459 23.7577L23.2559 24.0061V23.6134H24.0995V36.5122H33.4251L33.5335 36.7764C33.6968 37.1798 33.9893 37.5516 35.0069 37.5516C36.0279 37.5516 36.3185 37.1796 36.4822 36.7764L36.5885 36.5122H45.9335V23.6137ZM28.6581 20.6658C26.707 20.6658 25.1255 20.3624 25.1255 19.9881C25.1255 19.6139 26.707 19.3105 28.6581 19.3105C30.6092 19.3105 32.1907 19.6139 32.1907 19.9881C32.1907 20.3624 30.6092 20.6658 28.6581 20.6658ZM24.8673 18.9559L23.6197 15.1469L23.7916 15.0789L25.9161 16.5126L25.9338 16.6576L25.449 16.874C25.3528 16.924 25.3503 16.9998 25.4008 17.0463L26.5972 18.1282L26.7171 18.1167L27.6266 16.7791C27.6882 16.692 27.6645 16.6067 27.557 16.5885L26.947 16.4877V16.3349L28.5261 14.1034H28.7854L30.3657 16.3349V16.4877L29.7557 16.5885C29.6445 16.606 29.623 16.692 29.6862 16.7791L30.5934 18.1167L30.7152 18.1282L31.9979 17.0463C32.0459 17.0006 32.0459 16.924 31.9482 16.874L31.4642 16.6576L31.4826 16.5126L33.5204 15.0789L33.693 15.1469L32.4477 18.9559C31.8133 18.6719 30.36 18.4712 28.6565 18.464C26.954 18.4717 25.4997 18.6726 24.8673 18.9559ZM38.5276 45.5404C38.5276 45.9148 36.9452 46.2182 34.9932 46.2182C33.0413 46.2182 31.4589 45.9148 31.4589 45.5404C31.4589 45.166 33.0413 44.8626 34.9932 44.8626C36.9452 44.8626 38.5276 45.166 38.5276 45.5404ZM39.8561 40.6307L40.0294 40.6987L38.7813 44.5087C38.1499 44.2243 36.6951 44.0242 34.9927 44.0165C33.291 44.0241 31.8366 44.2243 31.2029 44.5087L29.9545 40.6987L30.1264 40.6307L32.2525 42.0637L32.2692 42.2091L31.7852 42.4271C31.6892 42.4738 31.6868 42.5521 31.7372 42.5985L32.9335 43.6787L33.0549 43.6686L33.962 42.33C34.0253 42.2442 34.004 42.1583 33.8926 42.1397L33.2839 42.0403V41.8847L34.862 39.6549H35.1223L36.7001 41.8847V42.0403L36.0911 42.1397C35.9833 42.1583 35.9599 42.2442 36.0226 42.33L36.9292 43.6686L37.0511 43.6787L38.3332 42.5985C38.3812 42.5521 38.3812 42.4738 38.2858 42.4271L37.8026 42.2091L37.8183 42.0637L39.8561 40.6307ZM41.314 19.309C43.2643 19.309 44.8454 19.613 44.8454 19.9881C44.8454 20.3633 43.2643 20.6673 41.314 20.6673C39.3636 20.6673 37.7825 20.3633 37.7825 19.9881C37.7825 19.613 39.3636 19.309 41.314 19.309ZM37.5229 18.9559L36.2751 15.1469L36.4477 15.0789L38.5717 16.5126L38.5903 16.6576L38.1056 16.8615C38.0088 16.9087 38.0071 16.9854 38.0572 17.0318L39.2544 18.1282L39.3746 18.1167L40.2825 16.7791C40.3441 16.692 40.3217 16.6067 40.2152 16.5885L39.6029 16.4877V16.3349L41.1843 14.1034H41.4419L43.022 16.3349V16.4877L42.4125 16.5885C42.3032 16.606 42.2799 16.692 42.3438 16.7791L43.2502 18.1167L43.3707 18.1282L44.6534 17.0463C44.7014 17.0006 44.7014 16.924 44.6034 16.874L44.1188 16.6576L44.1394 16.5126L46.177 15.0789L46.3489 15.1469L45.1026 18.9559C44.4688 18.6719 43.016 18.4712 41.3124 18.464C39.6105 18.4717 38.1542 18.6726 37.5229 18.9559ZM28.0791 25.4367C28.0791 25.2061 27.9731 25.0061 27.847 24.8863C27.6675 24.7112 27.394 24.6464 27.0621 24.6464H26.2761V24.7526C26.4505 24.7688 26.4721 24.7872 26.4721 25.0758V25.9649C26.4721 26.2552 26.4505 26.2743 26.2545 26.2903V26.3947H26.9492C27.5707 26.3947 28.0791 26.1073 28.0791 25.4367ZM26.9302 24.9352C26.9302 24.868 26.934 24.8056 26.9462 24.8C26.967 24.7903 26.9997 24.7816 27.063 24.7816C27.2907 24.7816 27.586 24.9442 27.586 25.5207C27.5854 25.9976 27.3494 26.2521 27.1181 26.2521C26.9901 26.2521 26.9302 26.2056 26.9302 25.968V24.9352ZM29.2078 26.4353C29.7256 26.4353 30.1177 26.0751 30.1177 25.4993C30.1177 24.9664 29.7376 24.6045 29.2482 24.6045C28.6032 24.6045 28.3135 25.1084 28.3135 25.5442C28.3135 26.0392 28.6655 26.4353 29.2078 26.4353ZM29.1918 24.7456C29.4239 24.7456 29.6175 25.0456 29.6175 25.5848C29.6175 26.072 29.4908 26.2956 29.2598 26.2956C28.9948 26.2956 28.8117 25.9399 28.8117 25.4527C28.8117 24.9831 28.9848 24.7456 29.1918 24.7456ZM30.9347 26.3954H30.2697V26.2895C30.4004 26.2802 30.4522 26.2528 30.4691 26.1528C30.4811 26.0696 30.4964 25.9275 30.5103 25.6825L30.54 25.139C30.5576 24.8 30.5376 24.7703 30.3233 24.7526V24.6464L30.957 24.6462L31.4293 25.7112L31.8394 24.6462H32.4924V24.7525C32.2875 24.7709 32.2772 24.7815 32.2869 25.064L32.3122 25.9649C32.3219 26.2632 32.3259 26.2712 32.5198 26.2895V26.3954H31.6772V26.2895C31.8798 26.2712 31.8868 26.2633 31.8838 25.9649L31.8773 25.0175H31.8656L31.3462 26.3656H31.2004L30.7088 25.1127H30.7034L30.6844 25.7097C30.6768 25.9398 30.6804 26.0696 30.6914 26.1528C30.7011 26.2519 30.7601 26.2769 30.9347 26.2895V26.3954ZM33.5732 26.3946H32.7022V26.2902C32.8878 26.2742 32.9108 26.2558 32.9108 25.9648V25.0756C32.9108 24.787 32.8868 24.7686 32.7022 24.7525V24.6462H33.5732V24.7525C33.3893 24.7678 33.3661 24.787 33.3661 25.0756V25.964C33.3661 26.2552 33.3901 26.2735 33.5732 26.2895V26.3946ZM28.0871 29.5174V29.622H27.4189V29.5174C27.5383 29.5118 27.6063 29.4748 27.62 29.3806C27.6296 29.2966 27.6405 29.1494 27.6405 28.8652V28.3708C27.6405 28.173 27.6353 28.137 27.5823 28.0628C27.5422 28.0057 27.4759 27.9874 27.378 27.9788V27.8737H27.9734L28.8673 28.9906H28.8727V28.6308C28.8727 28.3483 28.864 28.1987 28.8543 28.117C28.8383 28.0234 28.7666 27.9882 28.5895 27.9797V27.8744H29.2726V27.9797C29.1398 27.9851 29.0695 28.0225 29.0566 28.117C29.0472 28.1987 29.0359 28.3483 29.0359 28.6308V29.6419H28.8039L27.8102 28.3715H27.8022V28.8661C27.8022 29.1501 27.8135 29.2975 27.8229 29.3814C27.838 29.4747 27.9107 29.5102 28.0871 29.5174ZM30.0264 28.1189C30.0754 28.2692 30.288 28.799 30.3881 29.0623C30.4706 28.8348 30.6424 28.3204 30.6867 28.195C30.7434 28.0301 30.7257 28.0012 30.605 27.9875L30.5223 27.979V27.8739H31.1746V27.979C31.0202 27.9981 30.9833 28.0118 30.8776 28.2563C30.8626 28.2925 30.5339 29.0927 30.3329 29.6412H30.1248C29.9392 29.1564 29.6862 28.4926 29.5893 28.2387C29.5008 28.0089 29.4471 27.9948 29.3175 27.9788V27.8737H30.1855V27.9788L30.098 27.9892C29.997 28.0012 29.997 28.0255 30.0264 28.1189ZM32.0619 29.2581C32.0619 29.1001 31.9588 29.0115 31.7946 28.9354L31.7532 28.9169C31.5326 28.8138 31.2828 28.6745 31.2828 28.3865C31.2828 28.0825 31.5034 27.8352 31.9258 27.8352C32.0091 27.8352 32.0945 27.8459 32.1738 27.8673C32.2347 27.8833 32.2797 27.8939 32.3141 27.9048C32.3243 28.0115 32.3418 28.1416 32.3723 28.3252L32.254 28.3444C32.1953 28.1666 32.102 27.9744 31.8883 27.9744C31.7499 27.9744 31.6529 28.0803 31.6529 28.2088C31.6529 28.3444 31.7593 28.421 31.9322 28.4996L31.9896 28.5268C32.2378 28.6394 32.4516 28.7753 32.4516 29.0906C32.4516 29.4227 32.185 29.6644 31.7666 29.6644C31.6601 29.6644 31.5507 29.6417 31.4767 29.6172C31.3974 29.5891 31.3401 29.5691 31.309 29.5531C31.2873 29.4301 31.253 29.2843 31.2187 29.1034L31.3371 29.0692C31.3944 29.2255 31.5537 29.5235 31.8163 29.5235C31.9562 29.5235 32.0628 29.4326 32.0619 29.2581ZM27.1741 31.1015H28.0445V31.2077C27.8594 31.2239 27.838 31.2421 27.838 31.532V32.421C27.838 32.7114 27.8596 32.7307 28.0445 32.7459V32.8507H27.1741V32.7459C27.3595 32.7307 27.3814 32.7107 27.3814 32.421V31.532C27.3814 31.2421 27.3587 31.2239 27.1741 31.2077V31.1015ZM29.5358 32.3672L29.651 32.3863C29.6352 32.4871 29.5801 32.768 29.5558 32.8505H28.222V32.7457C28.4253 32.7306 28.4465 32.7106 28.4465 32.4209V31.5329C28.4465 31.244 28.4253 31.2249 28.2437 31.2077V31.1032H29.1199V31.2077C28.9254 31.2249 28.9045 31.2441 28.9045 31.5329V32.4558C28.9045 32.5961 28.9092 32.6625 28.9575 32.6863C29.0015 32.7086 29.0623 32.7113 29.1456 32.7113C29.2305 32.7113 29.348 32.7026 29.4032 32.632C29.4473 32.5809 29.4935 32.5087 29.5358 32.3672ZM31.0387 32.3672L31.1538 32.3863C31.137 32.4871 31.0826 32.768 31.0561 32.8505H29.7233V32.7457C29.9258 32.7306 29.949 32.7106 29.949 32.4209V31.5329C29.949 31.244 29.9258 31.2249 29.7447 31.2077V31.1032H30.6203V31.2077C30.4271 31.2249 30.405 31.2441 30.405 31.5329V32.4558C30.405 32.5961 30.4097 32.6625 30.4584 32.6863C30.5016 32.7086 30.5635 32.7113 30.6467 32.7113C30.7324 32.7113 30.8508 32.7026 30.905 32.632C30.9483 32.5809 30.9937 32.5087 31.0387 32.3672ZM32.0897 31.1013H32.7404V31.206C32.5875 31.2257 32.5494 31.2381 32.4433 31.4847C32.4273 31.5199 32.0996 32.3199 31.8973 32.8688H31.6906C31.5056 32.384 31.2528 31.7206 31.1552 31.4672C31.0665 31.2376 31.014 31.223 30.8842 31.2061V31.1015H31.7536V31.2061L31.6592 31.2167C31.5616 31.2288 31.5616 31.2536 31.5895 31.3472C31.64 31.4976 31.8523 32.0282 31.9505 32.2902C32.0353 32.0625 32.2065 31.5488 32.25 31.4222C32.3066 31.2573 32.2889 31.2289 32.169 31.2151L32.0883 31.2061L32.0897 31.206V31.1013ZM37.0601 26.3953H36.3961V26.2893C36.5242 26.28 36.5769 26.2526 36.5929 26.1527C36.607 26.0694 36.621 25.9273 36.635 25.6823L36.6656 25.1389C36.6836 24.7999 36.6616 24.7702 36.4494 24.7525V24.6462H37.0821L37.5542 25.7112L37.9643 24.6462H38.6182V24.7525C38.415 24.7709 38.4036 24.7815 38.4105 25.064L38.437 25.9649C38.4457 26.2632 38.4512 26.2712 38.6465 26.2895V26.3954H37.8026V26.2895C38.0051 26.2712 38.0137 26.2633 38.0105 25.9649L38.0025 25.0175H37.9904L37.4729 26.3656H37.326L36.8352 25.1127H36.8275L36.8095 25.7097C36.8024 25.9398 36.8057 26.0696 36.8149 26.1528C36.8244 26.2519 36.8838 26.2769 37.0603 26.2895L37.0601 26.3953ZM39.7004 26.3946H38.8277V26.2902C39.0132 26.2742 39.0363 26.2558 39.0363 25.9648V25.0756C39.0363 24.787 39.0132 24.7686 38.8277 24.7525V24.6462H39.7004V24.7525C39.5137 24.7678 39.4918 24.787 39.4918 25.0756V25.964C39.4918 26.2552 39.5152 26.2735 39.7004 26.2895V26.3946ZM39.8365 24.751V24.6455H40.432L41.328 25.7619H41.3334V25.4016C41.3334 25.1192 41.3218 24.9709 41.312 24.8878C41.2987 24.7936 41.2253 24.7592 41.0461 24.751V24.6455H41.7346V24.751C41.6015 24.7558 41.53 24.7936 41.5156 24.8878C41.5073 24.9709 41.4953 25.1192 41.4953 25.4016V26.4138H41.2624L40.2677 25.1433H40.2606V25.6375C40.2606 25.9215 40.2732 26.0689 40.2845 26.1512C40.2984 26.2465 40.3693 26.2816 40.5485 26.2915V26.3946H39.8779V26.2915C39.9974 26.284 40.0664 26.2465 40.0787 26.1512C40.092 26.0689 40.1013 25.9215 40.1013 25.6375V25.1433C40.1013 24.9448 40.0951 24.9105 40.0413 24.835C40.0013 24.7783 39.9352 24.7592 39.8365 24.751ZM41.6906 26.3954H42.3174V26.2922L42.2385 26.2825C42.114 26.2695 42.114 26.2422 42.15 26.1265L42.2305 25.8695H42.6735L42.7689 26.1432C42.8048 26.2398 42.8001 26.2672 42.6993 26.28L42.6189 26.2929V26.3961H43.4644V26.2929C43.333 26.2742 43.283 26.2618 43.1982 26.0273C43.0956 25.7541 42.98 25.435 42.8628 25.1159L42.6815 24.6075L42.4954 24.6447L41.9578 26.0359C41.8671 26.2618 41.8266 26.2728 41.6906 26.2929V26.3954ZM42.4437 25.1921H42.4531L42.6219 25.7062H42.2781L42.4437 25.1921ZM38.6635 28.0155L38.5988 28.0154V29.1934C38.5988 29.4837 38.6197 29.5028 38.8456 29.5179V29.6226H37.9043V29.5179C38.1195 29.5028 38.1402 29.4837 38.1402 29.1934V28.0154H38.0929C37.9163 28.0154 37.8422 28.0468 37.8001 28.0956C37.7681 28.1354 37.7354 28.2057 37.7001 28.3561H37.5867C37.5983 28.1299 37.6147 27.9435 37.6194 27.8072H37.7022C37.7429 27.8689 37.7695 27.8743 37.8415 27.8743H38.915C38.9856 27.8743 38.9969 27.8579 39.0409 27.8072H39.1244C39.1276 27.9203 39.1408 28.149 39.1541 28.3484L39.0362 28.3561C38.9948 28.1949 38.9658 28.1245 38.9244 28.0788C38.8791 28.0308 38.7916 28.0155 38.6635 28.0155ZM39.5497 29.1927V28.3034C39.5497 28.0147 39.5278 27.9957 39.3425 27.9788V27.8737H40.2131V27.9788C40.0279 27.9955 40.0059 28.0147 40.0059 28.3034V29.1927C40.0059 29.4828 40.0279 29.5021 40.2131 29.5174V29.622H39.3425V29.5174C39.5278 29.5021 39.5498 29.4828 39.5497 29.1927ZM42.2432 28.727C42.2432 28.1949 41.8649 27.834 41.3702 27.834C40.7298 27.834 40.4381 28.3364 40.4381 28.7714C40.4381 29.2661 40.7906 29.663 41.3351 29.663C41.85 29.6637 42.2432 29.3038 42.2432 28.727ZM40.938 28.6812C40.938 28.2116 41.1106 27.973 41.3185 27.973C41.5486 27.973 41.7432 28.2731 41.7432 28.8124C41.7432 29.2996 41.6171 29.5234 41.3845 29.5234C41.1205 29.5235 40.938 29.1684 40.938 28.6812ZM39.4196 32.745V32.8497H38.5761V32.745C38.7789 32.7267 38.7867 32.7177 38.7836 32.4193L38.776 31.4733H38.764L38.2453 32.8208H38.1022L37.6084 31.568H37.6013L37.5833 32.1641C37.5757 32.3946 37.5787 32.524 37.5899 32.6079C37.6006 32.708 37.6587 32.7321 37.8342 32.745V32.8497H37.1693V32.745C37.2983 32.7337 37.3507 32.708 37.3673 32.6079C37.3807 32.524 37.3945 32.3826 37.4085 32.1376L37.4399 31.5945C37.4588 31.2558 37.4375 31.2266 37.2226 31.2079V31.1016H37.8555L38.3275 32.1673L38.7396 31.1016H39.3936V31.2079C39.187 31.2266 39.1775 31.236 39.1857 31.5193L39.2124 32.4193C39.2198 32.7176 39.2245 32.7274 39.4196 32.745ZM40.9266 32.3519L41.0461 32.3703C41.032 32.5024 40.9753 32.778 40.9514 32.8497H39.5841V32.7466C39.7888 32.7281 39.81 32.7106 39.81 32.4209V31.5329C39.81 31.2413 39.7888 31.2221 39.6092 31.2069V31.1022H40.8827C40.8875 31.1479 40.8987 31.3448 40.9154 31.5464L40.7952 31.5543C40.7674 31.4229 40.7392 31.3479 40.694 31.3038C40.6499 31.2586 40.5625 31.2421 40.4185 31.2421H40.3747C40.2716 31.2421 40.2665 31.2421 40.2665 31.3358V31.855H40.4013C40.6317 31.855 40.641 31.8397 40.6671 31.6358H40.7844V32.2695H40.6671C40.6411 32.0343 40.6317 32.0183 40.4013 32.0183H40.2665V32.4558C40.2665 32.5945 40.2716 32.6626 40.32 32.6872C40.3626 32.7086 40.4247 32.7106 40.5083 32.7106C40.6153 32.7106 40.735 32.6937 40.7938 32.6305C40.8372 32.5809 40.8857 32.4833 40.9266 32.3519ZM42.5659 32.481C42.4626 32.208 42.3469 31.8895 42.2312 31.5695L42.0499 31.0616L41.8647 31.0983L41.3264 32.4897C41.2371 32.7154 41.1973 32.7267 41.0591 32.7459V32.8498H41.6858V32.7459L41.6071 32.737C41.4826 32.724 41.4826 32.697 41.5204 32.5809L41.6013 32.3239H42.0421L42.1373 32.5962C42.1726 32.6939 42.1686 32.7216 42.0679 32.7346L41.9874 32.7466V32.8507H42.8328V32.7466C42.6992 32.729 42.6515 32.7163 42.5659 32.481ZM41.6452 32.1626L41.8124 31.6488H41.8217L41.9905 32.1626H41.6452ZM32.5677 54.4912C32.5677 54.8794 32.2524 55.1947 31.8627 55.1947C31.4753 55.1947 31.1626 54.8794 31.1626 54.4912C31.1626 54.1035 31.4753 53.7864 31.8627 53.7864C32.2524 53.7864 32.5677 54.1044 32.5677 54.4912ZM39.702 55.6623C39.702 56.0507 39.3872 56.3656 38.9991 56.3656C38.6104 56.3656 38.295 56.0507 38.295 55.6623C38.295 55.2739 38.6104 54.9585 38.9991 54.9585C39.3872 54.9585 39.702 55.2739 39.702 55.6623ZM35.6689 4.8223C35.6689 5.21083 35.3541 5.52568 34.9655 5.52568C34.577 5.52568 34.2621 5.21083 34.2621 4.8223C34.2621 4.43377 34.577 4.11892 34.9655 4.11892C35.3541 4.11892 35.6689 4.43377 35.6689 4.8223ZM52.4113 11.3776C52.4113 11.7659 52.0966 12.0807 51.7085 12.0807C51.3198 12.0807 51.005 11.7659 51.005 11.3776C51.005 10.9888 51.3198 10.674 51.7085 10.674C52.0966 10.674 52.4113 10.9888 52.4113 11.3776ZM14.0372 41.4653C14.6685 41.0207 15.1734 40.7159 15.6405 40.7159C16.3253 40.7177 16.8222 41.162 17.1291 41.6038C17.3992 41.9933 17.5362 42.4083 17.5345 42.8397C17.5345 43.3319 17.3695 43.7312 16.4892 44.3401L13.9497 46.1511L13.4818 45.4768C13.4818 45.4768 16.0839 43.6242 16.1243 43.5955C16.5749 43.2852 16.767 43.0568 16.767 42.7014C16.767 42.4764 16.6854 42.2325 16.5221 41.9973C16.2686 41.6318 15.9404 41.5146 15.6526 41.513C15.3923 41.513 15.1126 41.6965 14.61 42.0458L12.2232 43.6654L11.7627 43.0044L14.0372 41.4653ZM11.3465 39.061L14.8412 37.6771L15.1013 38.3906L10.323 40.2252L10.0558 39.4938L12.8355 36.1121L9.27092 37.3577L9.0119 36.645L13.8439 34.95L14.1125 35.6826L11.3465 39.061ZM13.4717 32.8578L8.41118 33.6094L8.29081 32.799L13.3513 32.0473L13.4717 32.8578ZM13.1707 28.7417L7.98681 30.2884L7.99224 29.4371L12.1955 28.2597L8.13888 26.6977L8.15873 25.8497L13.2051 27.8987L13.1707 28.7417ZM14.3677 16.7452C14.2957 16.766 14.211 16.8102 14.1259 16.8692C14.1463 16.7781 14.1799 16.6903 14.1805 16.5956C14.182 16.4515 14.1613 16.3085 14.1172 16.1795C14.0203 15.8795 13.8058 15.6361 13.4829 15.4571C13.2411 15.3235 12.9996 15.2551 12.7553 15.2551C12.0315 15.2571 11.6971 15.6703 11.2344 16.5041L10.6343 17.5804L15.1403 20.024L15.5304 19.3222L13.6563 18.3007L13.7661 18.0983C14.0831 17.5279 14.1885 17.4411 14.9951 17.5095L16.4535 17.6397L16.8705 16.8829L15.1884 16.7387C14.85 16.7066 14.5846 16.6829 14.3677 16.7452ZM13.1628 17.7893L13.0593 17.9791L11.6177 17.2052L11.8444 16.8051C12.1424 16.2606 12.3578 16.053 12.6745 16.0546C12.7913 16.0546 12.9395 16.0851 13.089 16.166C13.2806 16.273 13.4277 16.45 13.4819 16.6394C13.5028 16.7133 13.5109 16.7875 13.5109 16.8605C13.5096 17.1646 13.3401 17.4693 13.1628 17.7893ZM19.0038 7.53359L22.1063 11.5987L21.4552 12.0957L18.3526 8.03064L19.0038 7.53359ZM23.5048 5.60379L25.5433 9.51866L24.8179 9.89805L22.7791 5.98147L21.483 6.65543L21.1603 6.0343L24.4682 4.31268L24.7896 4.93425L23.5048 5.60379ZM30.2752 2.5171L29.5816 5.93663L30.1432 7.88086L29.3625 8.10489L28.8136 6.17766L26.3853 3.64457L27.226 3.39968L28.9735 5.21983L29.4136 2.75727L30.2752 2.5171ZM47.6147 5.3432L50.0557 6.78252L49.7024 7.38552L47.9568 6.357L47.2396 7.57472L48.8804 8.54283L48.535 9.13312L46.8915 8.16515L45.7176 10.1614L45.0175 9.74769L47.6147 5.3432ZM57.6628 21.7627L55.4035 21.249L55.13 20.4107L58.1582 21.1409L60.0196 18.9128L60.3092 19.7954L58.9241 21.3811L60.9818 21.8444L61.2557 22.6739L58.4396 21.9941L56.4387 24.3921L56.1535 23.5228L57.6628 21.7627ZM56.694 26.1665L61.793 25.7504L62.0229 28.5781L61.3257 28.6339L61.1616 26.6162L59.7537 26.7314L59.9055 28.6308L59.2242 28.6852L59.0696 26.7857L56.7627 26.9753L56.694 26.1665ZM58.9504 30.7265C58.3596 30.7265 57.8163 30.8854 57.3863 31.1976C56.6143 31.7566 56.4754 32.5594 56.4754 33.0299C56.4754 34.759 58.0975 35.4513 59.3196 35.4513C59.9064 35.4513 60.4415 35.2919 60.8632 34.9852C61.7259 34.3621 61.7728 33.4254 61.7728 33.1217C61.7718 31.6128 60.3864 30.7265 58.9504 30.7265ZM60.4796 34.2994C60.1818 34.5147 59.793 34.6217 59.3536 34.6217C58.3569 34.6217 57.1941 34.0795 57.1941 33.0751C57.1941 32.7104 57.3209 32.223 57.7689 31.8968C58.0729 31.6758 58.4676 31.5576 58.9097 31.5576C59.4176 31.5576 60.3329 31.7015 60.8115 32.364C60.9781 32.5902 61.0631 32.8559 61.0602 33.1375C61.0584 33.5299 60.8999 33.9963 60.4796 34.2994ZM56.9268 18.1424C57.5597 17.7412 58.2628 16.9966 58.2628 15.9875C58.2628 15.5691 58.1449 15.1566 57.9027 14.7737C57.4549 14.0674 56.7534 13.7025 55.9813 13.7025C55.4657 13.7025 54.9156 13.8659 54.386 14.201C53.402 14.8254 53.0434 15.7173 53.0434 16.3693C53.0434 16.7912 53.1607 17.2046 53.4007 17.5849C53.9446 18.4472 54.7628 18.6558 55.3159 18.6535C55.8441 18.6519 56.4027 18.4769 56.9268 18.1424ZM54.0267 17.2247C53.8795 16.9957 53.8092 16.7461 53.8068 16.4974C53.8052 15.9172 54.1726 15.3245 54.842 14.8987C55.2858 14.6163 55.7219 14.4772 56.1126 14.4803C56.6055 14.4803 57.0067 14.6979 57.2747 15.1187C57.4322 15.3699 57.5048 15.6348 57.5048 15.8989C57.5048 16.4631 57.1472 17.0174 56.4987 17.4272C56.0453 17.7168 55.5874 17.8686 55.1846 17.8686C54.7266 17.8686 54.3107 17.6748 54.0267 17.2247ZM42.0303 3.16836C40.9624 3.16836 40.0363 3.88603 39.6605 5.16085C39.5776 5.44343 39.5262 5.72344 39.5262 5.99517C39.5262 6.50636 39.6125 6.91146 39.82 7.29313C40.2937 8.15958 41.1592 8.45444 41.8172 8.45444C42.189 8.45444 42.5471 8.36891 42.8758 8.18914C43.7387 7.71765 44.308 6.62259 44.308 5.57437C44.308 5.11802 44.2207 4.69036 44.0188 4.32325C43.6033 3.57003 42.8338 3.16836 42.0303 3.16836ZM41.7666 7.72978C41.3978 7.72978 40.8606 7.54887 40.5623 7.00241C40.4168 6.73825 40.3531 6.41755 40.3531 6.08542C40.3531 5.16999 40.9624 3.88517 42.0787 3.88517C42.7039 3.88517 43.4892 4.34995 43.4892 5.50726C43.4892 6.24334 42.9706 7.72978 41.7666 7.72978ZM13.615 24.7175L8.66692 23.3614L9.51195 20.52L10.1841 20.7092L9.56079 22.7574L10.9254 23.1318L11.4529 21.2721L12.1114 21.4596L11.5865 23.3127L13.13 23.7358L13.7028 21.7148L14.3884 21.9094L13.615 24.7175ZM19.3602 13.4979C19.3602 13.9316 19.1897 14.3171 18.8498 14.6988C18.1986 15.4286 17.3201 15.5094 17.3201 15.5094L17.1465 14.8237C17.6643 14.7034 18.0562 14.5057 18.292 14.2393C18.4803 14.0307 18.5723 13.7969 18.5723 13.5916C18.5723 13.3985 18.4897 13.2176 18.3332 13.0778C18.2041 12.9635 18.0499 12.9236 17.8794 12.9266C17.5513 12.9266 17.1569 13.1145 16.8338 13.2489C16.2114 13.5062 15.5557 13.7128 14.9691 13.1884C14.6714 12.9219 14.5125 12.5868 14.5125 12.2148C14.5125 11.8209 14.6675 11.4025 14.9997 11.0314C15.7099 10.2352 16.4367 10.2887 16.4367 10.2887L16.5596 10.965C16.5596 10.965 16.0006 10.9817 15.5631 11.4736C15.3716 11.6879 15.2747 11.9107 15.2747 12.1114C15.2747 12.2786 15.3403 12.4224 15.47 12.5384C15.8243 12.8545 16.4297 12.504 16.8077 12.352C17.0984 12.2312 17.5122 12.0633 17.9291 12.0633C18.2351 12.0633 18.5561 12.1511 18.8474 12.4121C19.1888 12.7154 19.3602 13.097 19.3602 13.4979ZM55.3375 37.3428L57.27 38.2187L57.1748 38.4352C56.9113 39.0297 56.8102 39.127 56.004 39.1313H54.5406L54.1906 39.9205L55.8774 39.9158C56.2207 39.9158 56.4861 39.9158 56.694 39.8354C56.7627 39.8097 56.8394 39.7683 56.9096 39.7096C56.9058 39.7533 56.8923 39.7957 56.8908 39.8399C56.8878 40.0283 56.9235 40.2143 56.994 40.377C57.2256 40.9159 57.8569 41.1817 58.3164 41.18C59.1303 41.18 59.4411 40.6925 59.8377 39.7971C59.8525 39.7635 60.3116 38.7008 60.3116 38.7008L55.6613 36.6067L55.3375 37.3428ZM57.8076 38.6908L57.8929 38.4956L59.3696 39.1564L59.2045 39.5518C58.929 40.1752 58.749 40.3754 58.3552 40.3754C58.1243 40.3754 57.7357 40.244 57.5863 39.8619C57.5489 39.7651 57.5336 39.6659 57.535 39.5682C57.5378 39.2876 57.6701 38.9969 57.8076 38.6908ZM52.6445 42.1817C52.1146 42.8458 51.7114 43.4388 51.7114 44.2053C51.7114 44.8573 52.0066 45.5978 52.756 46.1932C53.2513 46.5916 53.8115 46.8048 54.3892 46.8048C55.1015 46.8048 55.6726 46.5916 56.5566 45.4807L57.3643 44.464L53.3691 41.2738L52.6445 42.1817ZM56.3219 44.6712L56.1007 44.9508C55.5578 45.6299 55.1891 46.0314 54.4673 46.0314C54.0592 46.0314 53.6787 45.8751 53.2825 45.5572C52.8794 45.2375 52.4526 44.7352 52.4526 44.0966C52.4526 43.6521 52.6933 43.2279 53.0651 42.7638L53.4038 42.3372L56.3219 44.6712ZM64.2966 29.2518C64.2966 13.1215 51.1545 0 34.9992 0C18.8458 0 5.70346 13.1208 5.70346 29.2518C5.70489 38.9275 10.4816 47.9464 18.4873 53.4104C19.2754 56.3427 21.9558 58.511 25.144 58.511C26.006 58.511 26.8411 58.3481 27.6374 58.0415C28.7085 58.3948 29.8168 58.6883 30.9193 58.9149C30.6087 59.8042 30.1544 60.645 29.7214 61.3755C29.7214 61.3755 29.7328 61.3724 29.7473 61.3691C29.7376 61.3755 29.7299 61.3795 29.7214 61.3841L30.3313 61.9935C30.4889 61.9098 30.6634 61.8563 30.8536 61.8563C31.4562 61.8563 31.946 62.347 31.946 62.9516C31.946 63.553 31.4562 64.0452 30.8536 64.0452C30.3263 64.0452 29.8642 63.7085 29.6232 63.346C29.6232 63.346 29.4803 63.8398 29.4803 64.4877C29.476 66.5893 31.769 68.9913 34.9497 70C38.13 69.0123 40.4232 66.594 40.422 64.4907C40.422 63.7679 40.2772 63.346 40.2772 63.346C40.0333 63.6399 39.6379 64.0452 39.0412 64.0452C38.4372 64.0452 37.948 63.553 37.948 62.9516C37.948 62.3482 38.4372 61.8563 39.0412 61.8563C39.2514 61.8563 39.4458 61.9185 39.6139 62.025L40.2068 61.4309C40.2219 61.4356 40.2298 61.4363 40.2298 61.4363C39.8938 60.6363 39.6497 59.9002 39.4825 59.1915C44.7505 58.4836 49.1963 56.2541 52.7294 52.5384L52.7266 52.5352C60.0803 46.948 64.2966 38.4729 64.2966 29.2518ZM25.1453 57.6882C21.8192 57.6882 19.1133 54.9747 19.1133 51.6399C19.1133 50.5946 19.3804 49.6109 19.8469 48.7514C20.1562 49.035 20.4884 49.3265 20.834 49.6219C20.5402 50.2432 20.3717 50.9314 20.3717 51.6596C20.3717 53.4747 21.2861 54.9727 23.0192 55.9953C24.0123 56.5803 25.1386 57.1108 26.3316 57.5727C25.9416 57.6493 25.5477 57.6882 25.1453 57.6882ZM35.0008 48.8875C33.7461 48.8875 32.5081 48.7669 31.2971 48.5348C30.1298 46.2432 27.7327 44.7663 25.1452 44.7663C24.5095 44.7663 23.896 44.8617 23.3127 45.0211C18.3367 41.3251 15.37 35.448 15.37 29.2516C15.37 18.4247 24.1758 9.61547 35.0007 9.61547C45.824 9.61547 54.6311 18.4247 54.6311 29.2516C54.6313 40.0777 45.8241 48.8875 35.0008 48.8875ZM39.3685 49.2364C38.7792 50.0764 38.431 51.2451 38.3264 52.4266C36.4683 51.9484 34.7789 51.3038 33.3097 50.6343C33.5892 50.092 34.3917 49.7091 34.9998 49.7091C36.5001 49.7091 37.9604 49.5421 39.3685 49.2364ZM33.1461 49.6235C32.8965 49.8091 32.6945 50.0317 32.5524 50.2749C31.812 49.917 30.8796 49.4514 30.2696 49.1108C31.1339 49.3013 32.2594 49.5421 33.1461 49.6235ZM25.1453 45.5899C27.1671 45.5899 29.0575 46.6267 30.1672 48.2871C29.1942 48.0409 28.2421 47.7201 27.3114 47.3247L27.3084 47.3293L27.2792 47.3121C26.6275 47.0057 25.9309 46.8511 25.2073 46.8511C23.5979 46.8511 22.1726 47.6388 21.2907 48.8483C20.9213 48.6428 20.5516 48.427 20.1882 48.2011C21.2783 46.6246 23.0918 45.5899 25.1453 45.5899ZM39.0426 61.013C37.962 61.013 37.0751 61.7772 37.0751 62.9516C37.0751 64.0984 37.9745 64.886 39.0426 64.886C39.2031 64.886 39.359 64.8593 39.5084 64.822C39.2858 66.4465 37.3917 68.2654 34.9512 69.0803C32.5318 68.2708 30.6393 66.4378 30.389 64.822C30.5393 64.861 30.693 64.886 30.8555 64.886C32.0195 64.886 32.8205 64.0718 32.8205 62.9516C32.8205 61.8794 31.9814 61.0409 30.8989 61.0184C31.2276 60.4121 31.5443 59.7697 31.7786 59.0802C33.1223 59.315 34.4455 59.4416 35.6759 59.4416C36.6857 59.4416 37.6637 59.3869 38.6219 59.2901C38.7482 59.8434 38.9365 60.4244 39.1593 61.0229C39.1199 61.0202 39.081 61.013 39.0426 61.013ZM35.6749 58.6195C31.7468 58.6195 26.8428 57.2836 23.4742 55.2966C22.4557 54.6941 21.2364 53.5745 21.2364 51.6611C21.2364 51.1453 21.3379 50.6498 21.5173 50.1976C22.7748 51.237 24.0728 52.2118 24.8906 52.6579C25.0769 52.7596 25.185 52.8111 25.4057 52.8111C25.9274 52.8111 26.3523 52.3844 26.3523 51.8594C26.3523 51.4596 26.1363 51.1335 25.7753 50.9757C25.0775 50.6725 23.6199 50.0694 22.0488 49.2544C22.7758 48.2968 23.9199 47.673 25.2073 47.673C25.7963 47.673 26.363 47.7996 26.8906 48.0496L27.9694 48.6776C31.3929 50.7694 40.1998 56.1318 50.8336 53.1831C46.7974 56.8241 41.8252 58.6195 35.6749 58.6195ZM52.1684 51.9078C47.4084 53.5925 42.9666 53.4771 39.1765 52.6306C39.3005 50.9383 40.002 49.1294 41.0718 48.7917C49.4197 46.2032 55.4987 38.4235 55.4987 29.2518C55.4987 17.9701 46.3022 8.79257 35.0008 8.79257C23.6986 8.79257 14.5045 17.9701 14.5045 29.2518C14.5045 35.527 17.4339 41.4879 22.3679 45.3525C21.1983 45.8672 20.1973 46.7008 19.4747 47.7362C19.1013 47.4822 18.741 47.2182 18.4068 46.9432L18.2204 47.1299C18.4435 47.4002 18.7914 47.7575 19.2068 48.1543C18.5998 49.1762 18.2477 50.367 18.2477 51.6389C18.2477 51.837 18.2601 52.0305 18.2771 52.225C10.9331 46.8733 6.56934 38.3662 6.56934 29.2506C6.56905 13.5763 19.3242 0.823469 35.0008 0.823469C50.6776 0.823469 63.4307 13.5763 63.4307 29.2518C63.4307 38.2297 59.3256 46.4792 52.1684 51.9078Z" fill="white"/>
</svg>
