<svg width="22" height="35" viewBox="0 0 22 35" fill="none" xmlns="http://www.w3.org/2000/svg">
<line x1="1.32231" y1="25.793" x2="18.2929" y2="8.82247" stroke="#13131A" stroke-width="2"/>
<line x1="1.73653" y1="8.79303" x2="18.7071" y2="25.7636" stroke="#13131A" stroke-width="2"/>
</svg>
